{
  "data": [
    {
      "id": 1,
      "variant_id": 101,
      "product_id": 2,
      "product_name": "Iphone 11",
      "variants": [
        {
          "type": "Color",
          "value": "Black"
        }
      ],
      "quantity": 5,
      "vat": 14,
      "subtotal": 400,
      "total": 456,
      "is_active": true,
      "created_at": "2025-09-27T18:41:12.028Z",
      "updated_at": "2025-09-27T18:41:12.028Z"
    }
  ],
  "pagination": {
    "page": 1,
    "limit": 10,
    "total": 125,
    "totalPages": 13
  }
}
